unidade_controle_tb.vcd
$date
  Tue May 27 19:25:13 2025
$end
$version
  GHDL v0
$end
$timescale
  1 fs
$end
$scope module standard $end
$upscope $end
$scope module textio $end
$upscope $end
$scope module std_logic_1164 $end
$upscope $end
$scope module numeric_std $end
$upscope $end
$scope module unidade_controle_tb $end
$var reg 1 ! clk_in $end
$var reg 1 " rst_in $end
$var reg 1 # estado $end
$var reg 7 $ pc_out[6:0] $end
$var reg 18 % instr_out[17:0] $end
$scope module uut $end
$var reg 1 & clk $end
$var reg 1 ' rst $end
$var reg 1 ( estado $end
$var reg 7 ) pc_out[6:0] $end
$var reg 18 * instr_out[17:0] $end
$var reg 1 + estado_s $end
$var reg 1 , pc_wr_en $end
$var reg 7 - pc_data_in[6:0] $end
$var reg 7 . pc_data_out[6:0] $end
$var reg 18 / instr[17:0] $end
$var reg 4 0 opcode[3:0] $end
$var reg 1 1 jump_en $end
$var reg 7 2 jump_addr[6:0] $end
$scope module fsm $end
$var reg 1 3 clk $end
$var reg 1 4 rst $end
$var reg 1 5 estado $end
$var reg 1 6 estado_s $end
$upscope $end
$scope module pc_inst $end
$var reg 1 7 clk $end
$var reg 1 8 rst $end
$var reg 1 9 wr_en $end
$var reg 7 : data_in[6:0] $end
$var reg 7 ; data_out[6:0] $end
$var reg 7 < registro[6:0] $end
$upscope $end
$scope module rom_inst $end
$var reg 1 = clk $end
$var reg 7 > endereco[6:0] $end
$var reg 18 ? dado[17:0] $end
$upscope $end
$upscope $end
$upscope $end
$enddefinitions $end
#0
0!
1"
0#
b0000000 $
bUUUUUUUUUUUUUUUUUU %
0&
1'
0(
b0000000 )
bUUUUUUUUUUUUUUUUUU *
0+
0,
b0000001 -
b0000000 .
bUUUUUUUUUUUUUUUUUU /
bUUUU 0
01
bUUUUUUU 2
03
14
05
06
07
18
09
b0000001 :
b0000000 ;
b0000000 <
0=
b0000000 >
bUUUUUUUUUUUUUUUUUU ?
#5000000
1!
b000000000000000010 %
1&
b000000000000000010 *
b000000000000000010 /
b0000 0
b0000010 2
13
17
1=
b000000000000000010 ?
#10000000
0!
0&
03
07
0=
#15000000
1!
1&
13
17
1=
#20000000
0!
0"
0&
0'
03
04
07
08
0=
#25000000
1!
1#
1&
1(
1+
1,
13
15
16
17
19
1=
#30000000
0!
0&
03
07
0=
#35000000
1!
0#
b0000001 $
1&
0(
b0000001 )
0+
0,
b0000010 -
b0000001 .
13
05
06
17
09
b0000010 :
b0000001 ;
b0000001 <
1=
b0000001 >
#40000000
0!
0&
03
07
0=
#45000000
1!
1#
b100000000000000000 %
1&
1(
b100000000000000000 *
1+
1,
b100000000000000000 /
b1000 0
b0000000 2
13
15
16
17
19
1=
b100000000000000000 ?
#50000000
0!
0&
03
07
0=
#55000000
1!
0#
b0000010 $
1&
0(
b0000010 )
0+
0,
b0000011 -
b0000010 .
13
05
06
17
09
b0000011 :
b0000010 ;
b0000010 <
1=
b0000010 >
#60000000
0!
0&
03
07
0=
#65000000
1!
1#
b000000000000000000 %
1&
1(
b000000000000000000 *
1+
1,
b000000000000000000 /
b0000 0
13
15
16
17
19
1=
b000000000000000000 ?
#70000000
0!
0&
03
07
0=
#75000000
1!
0#
b0000011 $
1&
0(
b0000011 )
0+
0,
b0000100 -
b0000011 .
13
05
06
17
09
b0000100 :
b0000011 ;
b0000011 <
1=
b0000011 >
#80000000
0!
0&
03
07
0=
#85000000
1!
1#
1&
1(
1+
1,
13
15
16
17
19
1=
#90000000
0!
0&
03
07
0=
#95000000
1!
0#
b0000100 $
1&
0(
b0000100 )
0+
0,
b0000101 -
b0000100 .
13
05
06
17
09
b0000101 :
b0000100 ;
b0000100 <
1=
b0000100 >
#100000000
0!
0&
03
07
0=
#105000000
1!
1#
b100000000000000000 %
1&
1(
b100000000000000000 *
1+
1,
b100000000000000000 /
b1000 0
13
15
16
17
19
1=
b100000000000000000 ?
#110000000
0!
0&
03
07
0=
#115000000
1!
0#
b0000101 $
1&
0(
b0000101 )
0+
0,
b0000110 -
b0000101 .
13
05
06
17
09
b0000110 :
b0000101 ;
b0000101 <
1=
b0000101 >
#120000000
0!
0&
03
07
0=
#125000000
1!
1#
b000000000000000010 %
1&
1(
b000000000000000010 *
1+
1,
b000000000000000010 /
b0000 0
b0000010 2
13
15
16
17
19
1=
b000000000000000010 ?
#130000000
0!
0&
03
07
0=
#135000000
1!
0#
b0000110 $
1&
0(
b0000110 )
0+
0,
b0000111 -
b0000110 .
13
05
06
17
09
b0000111 :
b0000110 ;
b0000110 <
1=
b0000110 >
#140000000
0!
0&
03
07
0=
#145000000
1!
1#
b111100000000000011 %
1&
1(
b111100000000000011 *
1+
1,
b0000011 -
b111100000000000011 /
b1111 0
11
b0000011 2
13
15
16
17
19
b0000011 :
1=
b111100000000000011 ?
#150000000
0!
0&
03
07
0=
#155000000
1!
0#
b0000011 $
1&
0(
b0000011 )
0+
0,
b0000100 -
b0000011 .
13
05
06
17
09
b0000100 :
b0000011 ;
b0000011 <
1=
b0000011 >
#160000000
0!
0&
03
07
0=
#165000000
1!
1#
b000000000000000000 %
1&
1(
b000000000000000000 *
1+
1,
b0000100 -
b000000000000000000 /
b0000 0
01
b0000000 2
13
15
16
17
19
b0000100 :
1=
b000000000000000000 ?
#170000000
0!
0&
03
07
0=
#175000000
1!
0#
b0000100 $
1&
0(
b0000100 )
0+
0,
b0000101 -
b0000100 .
13
05
06
17
09
b0000101 :
b0000100 ;
b0000100 <
1=
b0000100 >
#180000000
0!
0&
03
07
0=
#185000000
1!
1#
b100000000000000000 %
1&
1(
b100000000000000000 *
1+
1,
b100000000000000000 /
b1000 0
13
15
16
17
19
1=
b100000000000000000 ?
#190000000
0!
0&
03
07
0=
#195000000
1!
0#
b0000101 $
1&
0(
b0000101 )
0+
0,
b0000110 -
b0000101 .
13
05
06
17
09
b0000110 :
b0000101 ;
b0000101 <
1=
b0000101 >
#200000000
0!
0&
03
07
0=
#205000000
1!
1#
b000000000000000010 %
1&
1(
b000000000000000010 *
1+
1,
b000000000000000010 /
b0000 0
b0000010 2
13
15
16
17
19
1=
b000000000000000010 ?
#210000000
0!
0&
03
07
0=
#215000000
1!
0#
b0000110 $
1&
0(
b0000110 )
0+
0,
b0000111 -
b0000110 .
13
05
06
17
09
b0000111 :
b0000110 ;
b0000110 <
1=
b0000110 >
#220000000
0!
0&
03
07
0=
#225000000
1!
1#
b111100000000000011 %
1&
1(
b111100000000000011 *
1+
1,
b0000011 -
b111100000000000011 /
b1111 0
11
b0000011 2
13
15
16
17
19
b0000011 :
1=
b111100000000000011 ?
#230000000
0!
0&
03
07
0=
#235000000
1!
0#
b0000011 $
1&
0(
b0000011 )
0+
0,
b0000100 -
b0000011 .
13
05
06
17
09
b0000100 :
b0000011 ;
b0000011 <
1=
b0000011 >
#240000000
0!
0&
03
07
0=
#245000000
1!
1#
b000000000000000000 %
1&
1(
b000000000000000000 *
1+
1,
b0000100 -
b000000000000000000 /
b0000 0
01
b0000000 2
13
15
16
17
19
b0000100 :
1=
b000000000000000000 ?
#250000000
0!
0&
03
07
0=
#255000000
1!
0#
b0000100 $
1&
0(
b0000100 )
0+
0,
b0000101 -
b0000100 .
13
05
06
17
09
b0000101 :
b0000100 ;
b0000100 <
1=
b0000100 >
#260000000
0!
0&
03
07
0=
#265000000
1!
1#
b100000000000000000 %
1&
1(
b100000000000000000 *
1+
1,
b100000000000000000 /
b1000 0
13
15
16
17
19
1=
b100000000000000000 ?
#270000000
0!
0&
03
07
0=
#275000000
1!
0#
b0000101 $
1&
0(
b0000101 )
0+
0,
b0000110 -
b0000101 .
13
05
06
17
09
b0000110 :
b0000101 ;
b0000101 <
1=
b0000101 >
#280000000
0!
0&
03
07
0=
#285000000
1!
1#
b000000000000000010 %
1&
1(
b000000000000000010 *
1+
1,
b000000000000000010 /
b0000 0
b0000010 2
13
15
16
17
19
1=
b000000000000000010 ?
#290000000
0!
0&
03
07
0=
#295000000
1!
0#
b0000110 $
1&
0(
b0000110 )
0+
0,
b0000111 -
b0000110 .
13
05
06
17
09
b0000111 :
b0000110 ;
b0000110 <
1=
b0000110 >
#300000000
0!
0&
03
07
0=
#305000000
1!
1#
b111100000000000011 %
1&
1(
b111100000000000011 *
1+
1,
b0000011 -
b111100000000000011 /
b1111 0
11
b0000011 2
13
15
16
17
19
b0000011 :
1=
b111100000000000011 ?
#310000000
0!
0&
03
07
0=
#315000000
1!
0#
b0000011 $
1&
0(
b0000011 )
0+
0,
b0000100 -
b0000011 .
13
05
06
17
09
b0000100 :
b0000011 ;
b0000011 <
1=
b0000011 >
#320000000
0!
0&
03
07
0=
#325000000
1!
1#
b000000000000000000 %
1&
1(
b000000000000000000 *
1+
1,
b0000100 -
b000000000000000000 /
b0000 0
01
b0000000 2
13
15
16
17
19
b0000100 :
1=
b000000000000000000 ?
#330000000
0!
0&
03
07
0=
#335000000
1!
0#
b0000100 $
1&
0(
b0000100 )
0+
0,
b0000101 -
b0000100 .
13
05
06
17
09
b0000101 :
b0000100 ;
b0000100 <
1=
b0000100 >
#340000000
0!
0&
03
07
0=
#345000000
1!
1#
b100000000000000000 %
1&
1(
b100000000000000000 *
1+
1,
b100000000000000000 /
b1000 0
13
15
16
17
19
1=
b100000000000000000 ?
#350000000
0!
0&
03
07
0=
#355000000
1!
0#
b0000101 $
1&
0(
b0000101 )
0+
0,
b0000110 -
b0000101 .
13
05
06
17
09
b0000110 :
b0000101 ;
b0000101 <
1=
b0000101 >
#360000000
0!
0&
03
07
0=
#365000000
1!
1#
b000000000000000010 %
1&
1(
b000000000000000010 *
1+
1,
b000000000000000010 /
b0000 0
b0000010 2
13
15
16
17
19
1=
b000000000000000010 ?
#370000000
0!
0&
03
07
0=
#375000000
1!
0#
b0000110 $
1&
0(
b0000110 )
0+
0,
b0000111 -
b0000110 .
13
05
06
17
09
b0000111 :
b0000110 ;
b0000110 <
1=
b0000110 >
#380000000
0!
0&
03
07
0=
#385000000
1!
1#
b111100000000000011 %
1&
1(
b111100000000000011 *
1+
1,
b0000011 -
b111100000000000011 /
b1111 0
11
b0000011 2
13
15
16
17
19
b0000011 :
1=
b111100000000000011 ?
#390000000
0!
0&
03
07
0=
#395000000
1!
0#
b0000011 $
1&
0(
b0000011 )
0+
0,
b0000100 -
b0000011 .
13
05
06
17
09
b0000100 :
b0000011 ;
b0000011 <
1=
b0000011 >
#400000000
0!
0&
03
07
0=
#405000000
1!
1#
b000000000000000000 %
1&
1(
b000000000000000000 *
1+
1,
b0000100 -
b000000000000000000 /
b0000 0
01
b0000000 2
13
15
16
17
19
b0000100 :
1=
b000000000000000000 ?
#410000000
0!
0&
03
07
0=
#415000000
1!
0#
b0000100 $
1&
0(
b0000100 )
0+
0,
b0000101 -
b0000100 .
13
05
06
17
09
b0000101 :
b0000100 ;
b0000100 <
1=
b0000100 >
#420000000
0!
0&
03
07
0=
#425000000
1!
1#
b100000000000000000 %
1&
1(
b100000000000000000 *
1+
1,
b100000000000000000 /
b1000 0
13
15
16
17
19
1=
b100000000000000000 ?
#430000000
0!
0&
03
07
0=
#435000000
1!
0#
b0000101 $
1&
0(
b0000101 )
0+
0,
b0000110 -
b0000101 .
13
05
06
17
09
b0000110 :
b0000101 ;
b0000101 <
1=
b0000101 >
#440000000
0!
0&
03
07
0=
#445000000
1!
1#
b000000000000000010 %
1&
1(
b000000000000000010 *
1+
1,
b000000000000000010 /
b0000 0
b0000010 2
13
15
16
17
19
1=
b000000000000000010 ?
#450000000
0!
0&
03
07
0=
#455000000
1!
0#
b0000110 $
1&
0(
b0000110 )
0+
0,
b0000111 -
b0000110 .
13
05
06
17
09
b0000111 :
b0000110 ;
b0000110 <
1=
b0000110 >
#460000000
0!
0&
03
07
0=
#465000000
1!
1#
b111100000000000011 %
1&
1(
b111100000000000011 *
1+
1,
b0000011 -
b111100000000000011 /
b1111 0
11
b0000011 2
13
15
16
17
19
b0000011 :
1=
b111100000000000011 ?
#470000000
0!
0&
03
07
0=
#475000000
1!
0#
b0000011 $
1&
0(
b0000011 )
0+
0,
b0000100 -
b0000011 .
13
05
06
17
09
b0000100 :
b0000011 ;
b0000011 <
1=
b0000011 >
#480000000
0!
0&
03
07
0=
#485000000
1!
1#
b000000000000000000 %
1&
1(
b000000000000000000 *
1+
1,
b0000100 -
b000000000000000000 /
b0000 0
01
b0000000 2
13
15
16
17
19
b0000100 :
1=
b000000000000000000 ?
#490000000
0!
0&
03
07
0=
#495000000
1!
0#
b0000100 $
1&
0(
b0000100 )
0+
0,
b0000101 -
b0000100 .
13
05
06
17
09
b0000101 :
b0000100 ;
b0000100 <
1=
b0000100 >
#500000000
0!
0&
03
07
0=
#505000000
1!
1#
b100000000000000000 %
1&
1(
b100000000000000000 *
1+
1,
b100000000000000000 /
b1000 0
13
15
16
17
19
1=
b100000000000000000 ?
#510000000
0!
0&
03
07
0=
#515000000
1!
0#
b0000101 $
1&
0(
b0000101 )
0+
0,
b0000110 -
b0000101 .
13
05
06
17
09
b0000110 :
b0000101 ;
b0000101 <
1=
b0000101 >
#520000000
0!
0&
03
07
0=
#525000000
1!
1#
b000000000000000010 %
1&
1(
b000000000000000010 *
1+
1,
b000000000000000010 /
b0000 0
b0000010 2
13
15
16
17
19
1=
b000000000000000010 ?
#530000000
0!
0&
03
07
0=
#535000000
1!
0#
b0000110 $
1&
0(
b0000110 )
0+
0,
b0000111 -
b0000110 .
13
05
06
17
09
b0000111 :
b0000110 ;
b0000110 <
1=
b0000110 >
#540000000
0!
0&
03
07
0=
#545000000
1!
1#
b111100000000000011 %
1&
1(
b111100000000000011 *
1+
1,
b0000011 -
b111100000000000011 /
b1111 0
11
b0000011 2
13
15
16
17
19
b0000011 :
1=
b111100000000000011 ?
#550000000
0!
0&
03
07
0=
#555000000
1!
0#
b0000011 $
1&
0(
b0000011 )
0+
0,
b0000100 -
b0000011 .
13
05
06
17
09
b0000100 :
b0000011 ;
b0000011 <
1=
b0000011 >
#560000000
0!
0&
03
07
0=
#565000000
1!
1#
b000000000000000000 %
1&
1(
b000000000000000000 *
1+
1,
b0000100 -
b000000000000000000 /
b0000 0
01
b0000000 2
13
15
16
17
19
b0000100 :
1=
b000000000000000000 ?
#570000000
0!
0&
03
07
0=
#575000000
1!
0#
b0000100 $
1&
0(
b0000100 )
0+
0,
b0000101 -
b0000100 .
13
05
06
17
09
b0000101 :
b0000100 ;
b0000100 <
1=
b0000100 >
#580000000
0!
0&
03
07
0=
#585000000
1!
1#
b100000000000000000 %
1&
1(
b100000000000000000 *
1+
1,
b100000000000000000 /
b1000 0
13
15
16
17
19
1=
b100000000000000000 ?
#590000000
0!
0&
03
07
0=
#595000000
1!
0#
b0000101 $
1&
0(
b0000101 )
0+
0,
b0000110 -
b0000101 .
13
05
06
17
09
b0000110 :
b0000101 ;
b0000101 <
1=
b0000101 >
#600000000
0!
0&
03
07
0=
#605000000
1!
1#
b000000000000000010 %
1&
1(
b000000000000000010 *
1+
1,
b000000000000000010 /
b0000 0
b0000010 2
13
15
16
17
19
1=
b000000000000000010 ?
#610000000
0!
0&
03
07
0=
#615000000
1!
0#
b0000110 $
1&
0(
b0000110 )
0+
0,
b0000111 -
b0000110 .
13
05
06
17
09
b0000111 :
b0000110 ;
b0000110 <
1=
b0000110 >
#620000000
0!
0&
03
07
0=
#625000000
1!
1#
b111100000000000011 %
1&
1(
b111100000000000011 *
1+
1,
b0000011 -
b111100000000000011 /
b1111 0
11
b0000011 2
13
15
16
17
19
b0000011 :
1=
b111100000000000011 ?
#630000000
0!
0&
03
07
0=
#635000000
1!
0#
b0000011 $
1&
0(
b0000011 )
0+
0,
b0000100 -
b0000011 .
13
05
06
17
09
b0000100 :
b0000011 ;
b0000011 <
1=
b0000011 >
#640000000
0!
0&
03
07
0=
#645000000
1!
1#
b000000000000000000 %
1&
1(
b000000000000000000 *
1+
1,
b0000100 -
b000000000000000000 /
b0000 0
01
b0000000 2
13
15
16
17
19
b0000100 :
1=
b000000000000000000 ?
#650000000
0!
0&
03
07
0=
#655000000
1!
0#
b0000100 $
1&
0(
b0000100 )
0+
0,
b0000101 -
b0000100 .
13
05
06
17
09
b0000101 :
b0000100 ;
b0000100 <
1=
b0000100 >
#660000000
0!
0&
03
07
0=
#665000000
1!
1#
b100000000000000000 %
1&
1(
b100000000000000000 *
1+
1,
b100000000000000000 /
b1000 0
13
15
16
17
19
1=
b100000000000000000 ?
#670000000
0!
0&
03
07
0=
#675000000
1!
0#
b0000101 $
1&
0(
b0000101 )
0+
0,
b0000110 -
b0000101 .
13
05
06
17
09
b0000110 :
b0000101 ;
b0000101 <
1=
b0000101 >
#680000000
0!
0&
03
07
0=
#685000000
1!
1#
b000000000000000010 %
1&
1(
b000000000000000010 *
1+
1,
b000000000000000010 /
b0000 0
b0000010 2
13
15
16
17
19
1=
b000000000000000010 ?
#690000000
0!
0&
03
07
0=
#695000000
1!
0#
b0000110 $
1&
0(
b0000110 )
0+
0,
b0000111 -
b0000110 .
13
05
06
17
09
b0000111 :
b0000110 ;
b0000110 <
1=
b0000110 >
#700000000
0!
0&
03
07
0=
#705000000
1!
1#
b111100000000000011 %
1&
1(
b111100000000000011 *
1+
1,
b0000011 -
b111100000000000011 /
b1111 0
11
b0000011 2
13
15
16
17
19
b0000011 :
1=
b111100000000000011 ?
#710000000
0!
0&
03
07
0=
#715000000
1!
0#
b0000011 $
1&
0(
b0000011 )
0+
0,
b0000100 -
b0000011 .
13
05
06
17
09
b0000100 :
b0000011 ;
b0000011 <
1=
b0000011 >
#720000000
0!
0&
03
07
0=
#725000000
1!
1#
b000000000000000000 %
1&
1(
b000000000000000000 *
1+
1,
b0000100 -
b000000000000000000 /
b0000 0
01
b0000000 2
13
15
16
17
19
b0000100 :
1=
b000000000000000000 ?
#730000000
0!
0&
03
07
0=
#735000000
1!
0#
b0000100 $
1&
0(
b0000100 )
0+
0,
b0000101 -
b0000100 .
13
05
06
17
09
b0000101 :
b0000100 ;
b0000100 <
1=
b0000100 >
#740000000
0!
0&
03
07
0=
#745000000
1!
1#
b100000000000000000 %
1&
1(
b100000000000000000 *
1+
1,
b100000000000000000 /
b1000 0
13
15
16
17
19
1=
b100000000000000000 ?
#750000000
0!
0&
03
07
0=
#755000000
1!
0#
b0000101 $
1&
0(
b0000101 )
0+
0,
b0000110 -
b0000101 .
13
05
06
17
09
b0000110 :
b0000101 ;
b0000101 <
1=
b0000101 >
#760000000
0!
0&
03
07
0=
#765000000
1!
1#
b000000000000000010 %
1&
1(
b000000000000000010 *
1+
1,
b000000000000000010 /
b0000 0
b0000010 2
13
15
16
17
19
1=
b000000000000000010 ?
#770000000
0!
0&
03
07
0=
#775000000
1!
0#
b0000110 $
1&
0(
b0000110 )
0+
0,
b0000111 -
b0000110 .
13
05
06
17
09
b0000111 :
b0000110 ;
b0000110 <
1=
b0000110 >
#780000000
0!
0&
03
07
0=
#785000000
1!
1#
b111100000000000011 %
1&
1(
b111100000000000011 *
1+
1,
b0000011 -
b111100000000000011 /
b1111 0
11
b0000011 2
13
15
16
17
19
b0000011 :
1=
b111100000000000011 ?
#790000000
0!
0&
03
07
0=
#795000000
1!
0#
b0000011 $
1&
0(
b0000011 )
0+
0,
b0000100 -
b0000011 .
13
05
06
17
09
b0000100 :
b0000011 ;
b0000011 <
1=
b0000011 >
#800000000
0!
0&
03
07
0=
#805000000
1!
1#
b000000000000000000 %
1&
1(
b000000000000000000 *
1+
1,
b0000100 -
b000000000000000000 /
b0000 0
01
b0000000 2
13
15
16
17
19
b0000100 :
1=
b000000000000000000 ?
#810000000
0!
0&
03
07
0=
#815000000
1!
0#
b0000100 $
1&
0(
b0000100 )
0+
0,
b0000101 -
b0000100 .
13
05
06
17
09
b0000101 :
b0000100 ;
b0000100 <
1=
b0000100 >
#820000000
0!
0&
03
07
0=
#825000000
1!
1#
b100000000000000000 %
1&
1(
b100000000000000000 *
1+
1,
b100000000000000000 /
b1000 0
13
15
16
17
19
1=
b100000000000000000 ?
#830000000
0!
0&
03
07
0=
#835000000
1!
0#
b0000101 $
1&
0(
b0000101 )
0+
0,
b0000110 -
b0000101 .
13
05
06
17
09
b0000110 :
b0000101 ;
b0000101 <
1=
b0000101 >
#840000000
0!
0&
03
07
0=
#845000000
1!
1#
b000000000000000010 %
1&
1(
b000000000000000010 *
1+
1,
b000000000000000010 /
b0000 0
b0000010 2
13
15
16
17
19
1=
b000000000000000010 ?
#850000000
0!
0&
03
07
0=
#855000000
1!
0#
b0000110 $
1&
0(
b0000110 )
0+
0,
b0000111 -
b0000110 .
13
05
06
17
09
b0000111 :
b0000110 ;
b0000110 <
1=
b0000110 >
#860000000
0!
0&
03
07
0=
#865000000
1!
1#
b111100000000000011 %
1&
1(
b111100000000000011 *
1+
1,
b0000011 -
b111100000000000011 /
b1111 0
11
b0000011 2
13
15
16
17
19
b0000011 :
1=
b111100000000000011 ?
#870000000
0!
0&
03
07
0=
#875000000
1!
0#
b0000011 $
1&
0(
b0000011 )
0+
0,
b0000100 -
b0000011 .
13
05
06
17
09
b0000100 :
b0000011 ;
b0000011 <
1=
b0000011 >
#880000000
0!
0&
03
07
0=
#885000000
1!
1#
b000000000000000000 %
1&
1(
b000000000000000000 *
1+
1,
b0000100 -
b000000000000000000 /
b0000 0
01
b0000000 2
13
15
16
17
19
b0000100 :
1=
b000000000000000000 ?
#890000000
0!
0&
03
07
0=
#895000000
1!
0#
b0000100 $
1&
0(
b0000100 )
0+
0,
b0000101 -
b0000100 .
13
05
06
17
09
b0000101 :
b0000100 ;
b0000100 <
1=
b0000100 >
#900000000
0!
0&
03
07
0=
#905000000
1!
1#
b100000000000000000 %
1&
1(
b100000000000000000 *
1+
1,
b100000000000000000 /
b1000 0
13
15
16
17
19
1=
b100000000000000000 ?
#910000000
0!
0&
03
07
0=
#915000000
1!
0#
b0000101 $
1&
0(
b0000101 )
0+
0,
b0000110 -
b0000101 .
13
05
06
17
09
b0000110 :
b0000101 ;
b0000101 <
1=
b0000101 >
#920000000
0!
0&
03
07
0=
#925000000
1!
1#
b000000000000000010 %
1&
1(
b000000000000000010 *
1+
1,
b000000000000000010 /
b0000 0
b0000010 2
13
15
16
17
19
1=
b000000000000000010 ?
#930000000
0!
0&
03
07
0=
#935000000
1!
0#
b0000110 $
1&
0(
b0000110 )
0+
0,
b0000111 -
b0000110 .
13
05
06
17
09
b0000111 :
b0000110 ;
b0000110 <
1=
b0000110 >
#940000000
0!
0&
03
07
0=
#945000000
1!
1#
b111100000000000011 %
1&
1(
b111100000000000011 *
1+
1,
b0000011 -
b111100000000000011 /
b1111 0
11
b0000011 2
13
15
16
17
19
b0000011 :
1=
b111100000000000011 ?
#950000000
0!
0&
03
07
0=
#955000000
1!
0#
b0000011 $
1&
0(
b0000011 )
0+
0,
b0000100 -
b0000011 .
13
05
06
17
09
b0000100 :
b0000011 ;
b0000011 <
1=
b0000011 >
#960000000
0!
0&
03
07
0=
#965000000
1!
1#
b000000000000000000 %
1&
1(
b000000000000000000 *
1+
1,
b0000100 -
b000000000000000000 /
b0000 0
01
b0000000 2
13
15
16
17
19
b0000100 :
1=
b000000000000000000 ?
#970000000
0!
0&
03
07
0=
#975000000
1!
0#
b0000100 $
1&
0(
b0000100 )
0+
0,
b0000101 -
b0000100 .
13
05
06
17
09
b0000101 :
b0000100 ;
b0000100 <
1=
b0000100 >
#980000000
0!
0&
03
07
0=
#985000000
1!
1#
b100000000000000000 %
1&
1(
b100000000000000000 *
1+
1,
b100000000000000000 /
b1000 0
13
15
16
17
19
1=
b100000000000000000 ?
#990000000
0!
0&
03
07
0=
#995000000
1!
0#
b0000101 $
1&
0(
b0000101 )
0+
0,
b0000110 -
b0000101 .
13
05
06
17
09
b0000110 :
b0000101 ;
b0000101 <
1=
b0000101 >
#1000000000
0!
0&
03
07
0=
#1005000000
1!
1#
b000000000000000010 %
1&
1(
b000000000000000010 *
1+
1,
b000000000000000010 /
b0000 0
b0000010 2
13
15
16
17
19
1=
b000000000000000010 ?
#1010000000
0!
0&
03
07
0=
#1015000000
1!
0#
b0000110 $
1&
0(
b0000110 )
0+
0,
b0000111 -
b0000110 .
13
05
06
17
09
b0000111 :
b0000110 ;
b0000110 <
1=
b0000110 >
#1020000000
0!
0&
03
07
0=
#1025000000
1!
1#
b111100000000000011 %
1&
1(
b111100000000000011 *
1+
1,
b0000011 -
b111100000000000011 /
b1111 0
11
b0000011 2
13
15
16
17
19
b0000011 :
1=
b111100000000000011 ?
#1030000000
0!
0&
03
07
0=
#1035000000
1!
0#
b0000011 $
1&
0(
b0000011 )
0+
0,
b0000100 -
b0000011 .
13
05
06
17
09
b0000100 :
b0000011 ;
b0000011 <
1=
b0000011 >
#1040000000
0!
0&
03
07
0=
#1045000000
1!
1#
b000000000000000000 %
1&
1(
b000000000000000000 *
1+
1,
b0000100 -
b000000000000000000 /
b0000 0
01
b0000000 2
13
15
16
17
19
b0000100 :
1=
b000000000000000000 ?
#1050000000
0!
0&
03
07
0=
#1055000000
1!
0#
b0000100 $
1&
0(
b0000100 )
0+
0,
b0000101 -
b0000100 .
13
05
06
17
09
b0000101 :
b0000100 ;
b0000100 <
1=
b0000100 >
#1060000000
0!
0&
03
07
0=
#1065000000
1!
1#
b100000000000000000 %
1&
1(
b100000000000000000 *
1+
1,
b100000000000000000 /
b1000 0
13
15
16
17
19
1=
b100000000000000000 ?
#1070000000
0!
0&
03
07
0=
#1075000000
1!
0#
b0000101 $
1&
0(
b0000101 )
0+
0,
b0000110 -
b0000101 .
13
05
06
17
09
b0000110 :
b0000101 ;
b0000101 <
1=
b0000101 >
#1080000000
0!
0&
03
07
0=
#1085000000
1!
1#
b000000000000000010 %
1&
1(
b000000000000000010 *
1+
1,
b000000000000000010 /
b0000 0
b0000010 2
13
15
16
17
19
1=
b000000000000000010 ?
#1090000000
0!
0&
03
07
0=
#1095000000
1!
0#
b0000110 $
1&
0(
b0000110 )
0+
0,
b0000111 -
b0000110 .
13
05
06
17
09
b0000111 :
b0000110 ;
b0000110 <
1=
b0000110 >
#1100000000
0!
0&
03
07
0=
#1105000000
1!
1#
b111100000000000011 %
1&
1(
b111100000000000011 *
1+
1,
b0000011 -
b111100000000000011 /
b1111 0
11
b0000011 2
13
15
16
17
19
b0000011 :
1=
b111100000000000011 ?
#1110000000
0!
0&
03
07
0=
#1115000000
1!
0#
b0000011 $
1&
0(
b0000011 )
0+
0,
b0000100 -
b0000011 .
13
05
06
17
09
b0000100 :
b0000011 ;
b0000011 <
1=
b0000011 >
#1120000000
0!
0&
03
07
0=
#1125000000
1!
1#
b000000000000000000 %
1&
1(
b000000000000000000 *
1+
1,
b0000100 -
b000000000000000000 /
b0000 0
01
b0000000 2
13
15
16
17
19
b0000100 :
1=
b000000000000000000 ?
#1130000000
0!
0&
03
07
0=
#1135000000
1!
0#
b0000100 $
1&
0(
b0000100 )
0+
0,
b0000101 -
b0000100 .
13
05
06
17
09
b0000101 :
b0000100 ;
b0000100 <
1=
b0000100 >
#1140000000
0!
0&
03
07
0=
#1145000000
1!
1#
b100000000000000000 %
1&
1(
b100000000000000000 *
1+
1,
b100000000000000000 /
b1000 0
13
15
16
17
19
1=
b100000000000000000 ?
#1150000000
0!
0&
03
07
0=
#1155000000
1!
0#
b0000101 $
1&
0(
b0000101 )
0+
0,
b0000110 -
b0000101 .
13
05
06
17
09
b0000110 :
b0000101 ;
b0000101 <
1=
b0000101 >
#1160000000
0!
0&
03
07
0=
#1165000000
1!
1#
b000000000000000010 %
1&
1(
b000000000000000010 *
1+
1,
b000000000000000010 /
b0000 0
b0000010 2
13
15
16
17
19
1=
b000000000000000010 ?
#1170000000
0!
0&
03
07
0=
#1175000000
1!
0#
b0000110 $
1&
0(
b0000110 )
0+
0,
b0000111 -
b0000110 .
13
05
06
17
09
b0000111 :
b0000110 ;
b0000110 <
1=
b0000110 >
#1180000000
0!
0&
03
07
0=
#1185000000
1!
1#
b111100000000000011 %
1&
1(
b111100000000000011 *
1+
1,
b0000011 -
b111100000000000011 /
b1111 0
11
b0000011 2
13
15
16
17
19
b0000011 :
1=
b111100000000000011 ?
#1190000000
0!
0&
03
07
0=
#1195000000
1!
0#
b0000011 $
1&
0(
b0000011 )
0+
0,
b0000100 -
b0000011 .
13
05
06
17
09
b0000100 :
b0000011 ;
b0000011 <
1=
b0000011 >
#1200000000
0!
0&
03
07
0=
#1205000000
1!
1#
b000000000000000000 %
1&
1(
b000000000000000000 *
1+
1,
b0000100 -
b000000000000000000 /
b0000 0
01
b0000000 2
13
15
16
17
19
b0000100 :
1=
b000000000000000000 ?
#1210000000
0!
0&
03
07
0=
#1215000000
1!
0#
b0000100 $
1&
0(
b0000100 )
0+
0,
b0000101 -
b0000100 .
13
05
06
17
09
b0000101 :
b0000100 ;
b0000100 <
1=
b0000100 >
#1220000000
0!
0&
03
07
0=
#1225000000
1!
1#
b100000000000000000 %
1&
1(
b100000000000000000 *
1+
1,
b100000000000000000 /
b1000 0
13
15
16
17
19
1=
b100000000000000000 ?
#1230000000
0!
0&
03
07
0=
#1235000000
1!
0#
b0000101 $
1&
0(
b0000101 )
0+
0,
b0000110 -
b0000101 .
13
05
06
17
09
b0000110 :
b0000101 ;
b0000101 <
1=
b0000101 >
#1240000000
0!
0&
03
07
0=
#1245000000
1!
1#
b000000000000000010 %
1&
1(
b000000000000000010 *
1+
1,
b000000000000000010 /
b0000 0
b0000010 2
13
15
16
17
19
1=
b000000000000000010 ?
#1250000000
0!
0&
03
07
0=
#1255000000
1!
0#
b0000110 $
1&
0(
b0000110 )
0+
0,
b0000111 -
b0000110 .
13
05
06
17
09
b0000111 :
b0000110 ;
b0000110 <
1=
b0000110 >
#1260000000
0!
0&
03
07
0=
